File: 5_berkText_2

Hit : 2361
Miss: 381
Acc : 0.861050328228

    Confusion Matrix
	+	-	O	
---------------------------------
+	829	17	158	
-	30	894	118	
O	55	3	638	
---------------------------------
